simulation/qsim/VendingMachine.msim.vcd
$comment
	File created using the following command:
		vcd file VendingMachine.msim.vcd -direction
$end
$date
	Sat Nov 17 15:13:01 2018
$end
$version
	ModelSim Version 10.5b
$end
$timescale
	1ps
$end

$scope module VendingMachine_vlg_vec_tst $end
$var reg 1 ! clk_i $end
$var reg 2 " num_five_i [1:0] $end
$var reg 4 # num_one_i [3:0] $end
$var reg 1 $ num_ten_i $end
$var reg 1 % num_twenty_i $end
$var reg 4 & product_type_i [3:0] $end
$var reg 1 ' reselected_i $end
$var reg 1 ( rst_i $end
$var wire 1 ) Current_state_o [1] $end
$var wire 1 * Current_state_o [0] $end
$var wire 1 + five_num_o [1] $end
$var wire 1 , five_num_o [0] $end
$var wire 1 - one_num_o [2] $end
$var wire 1 . one_num_o [1] $end
$var wire 1 / one_num_o [0] $end
$var wire 1 0 out_o $end
$var wire 1 1 ten_num_o $end

$scope module i1 $end
$var wire 1 2 gnd $end
$var wire 1 3 vcc $end
$var wire 1 4 unknown $end
$var tri1 1 5 devclrn $end
$var tri1 1 6 devpor $end
$var tri1 1 7 devoe $end
$var wire 1 8 out_o~output_o $end
$var wire 1 9 ten_num_o~output_o $end
$var wire 1 : five_num_o[0]~output_o $end
$var wire 1 ; five_num_o[1]~output_o $end
$var wire 1 < one_num_o[0]~output_o $end
$var wire 1 = one_num_o[1]~output_o $end
$var wire 1 > one_num_o[2]~output_o $end
$var wire 1 ? Current_state_o[0]~output_o $end
$var wire 1 @ Current_state_o[1]~output_o $end
$var wire 1 A clk_i~input_o $end
$var wire 1 B rst_i~input_o $end
$var wire 1 C num_five_i[1]~input_o $end
$var wire 1 D num_five_i[0]~input_o $end
$var wire 1 E num_ten_i~input_o $end
$var wire 1 F num_twenty_i~input_o $end
$var wire 1 G V1|Add1~2_combout $end
$var wire 1 H num_one_i[3]~input_o $end
$var wire 1 I V1|Add1~1_combout $end
$var wire 1 J num_one_i[2]~input_o $end
$var wire 1 K num_one_i[1]~input_o $end
$var wire 1 L num_one_i[0]~input_o $end
$var wire 1 M V1|Add2~14 $end
$var wire 1 N V1|Add2~18 $end
$var wire 1 O V1|Add2~6 $end
$var wire 1 P V1|Add2~9_sumout $end
$var wire 1 Q V1|Add1~0_combout $end
$var wire 1 R V1|Add2~10 $end
$var wire 1 S V1|Add2~1_sumout $end
$var wire 1 T V1|Add2~13_sumout $end
$var wire 1 U V1|Add2~17_sumout $end
$var wire 1 V V1|Add2~5_sumout $end
$var wire 1 W Equal0~2_combout $end
$var wire 1 X reselected_i~input_o $end
$var wire 1 Y Selector7~0_combout $end
$var wire 1 Z product_type_i[0]~input_o $end
$var wire 1 [ product_type_i[1]~input_o $end
$var wire 1 \ product_type_i[2]~input_o $end
$var wire 1 ] product_type_i[3]~input_o $end
$var wire 1 ^ U1|price_o[0]~0_combout $end
$var wire 1 _ Equal0~0_combout $end
$var wire 1 ` Equal0~1_combout $end
$var wire 1 a Next_state~9_combout $end
$var wire 1 b Next_state.S2~q $end
$var wire 1 c Current_state~13_combout $end
$var wire 1 d Current_state.S2~q $end
$var wire 1 e Selector3~0_combout $end
$var wire 1 f Selector3~1_combout $end
$var wire 1 g U1|WideOr0~0_combout $end
$var wire 1 h Next_state~8_combout $end
$var wire 1 i Selector0~0_combout $end
$var wire 1 j Selector1~0_combout $end
$var wire 1 k Selector1~1_combout $end
$var wire 1 l X1|LessThan0~0_combout $end
$var wire 1 m X1|LessThan0~2_combout $end
$var wire 1 n U1|Decoder0~0_combout $end
$var wire 1 o X1|LessThan0~3_combout $end
$var wire 1 p Selector5~0_combout $end
$var wire 1 q Selector5~2_combout $end
$var wire 1 r Next_state.S0~q $end
$var wire 1 s Current_state~12_combout $end
$var wire 1 t Current_state.S0~q $end
$var wire 1 u Selector5~1_combout $end
$var wire 1 v Selector6~0_combout $end
$var wire 1 w Next_state.S1~q $end
$var wire 1 x Current_state~14_combout $end
$var wire 1 y Current_state.S1~q $end
$var wire 1 z Selector2~0_combout $end
$var wire 1 { Selector2~1_combout $end
$var wire 1 | Selector4~0_combout $end
$var wire 1 } Selector4~1_combout $end
$var wire 1 ~ X1|LessThan0~1_combout $end
$var wire 1 !! Selector7~1_combout $end
$var wire 1 "! Selector7~2_combout $end
$var wire 1 #! Next_state.S3~q $end
$var wire 1 $! Current_state~15_combout $end
$var wire 1 %! Current_state.S3~q $end
$var wire 1 &! out_r~0_combout $end
$var wire 1 '! out_r~q $end
$var wire 1 (! X1|Add0~18 $end
$var wire 1 )! X1|Add0~19 $end
$var wire 1 *! X1|Add0~14 $end
$var wire 1 +! X1|Add0~15 $end
$var wire 1 ,! X1|Add0~10 $end
$var wire 1 -! X1|Add0~11 $end
$var wire 1 .! X1|Add0~6 $end
$var wire 1 /! X1|Add0~7 $end
$var wire 1 0! X1|Add0~1_sumout $end
$var wire 1 1! X1|LessThan0~4_combout $end
$var wire 1 2! X1|Add0~5_sumout $end
$var wire 1 3! X1|Add0~9_sumout $end
$var wire 1 4! X1|return_money_i[2]~0_combout $end
$var wire 1 5! X1|Add0~13_sumout $end
$var wire 1 6! X1|return_money_i[1]~1_combout $end
$var wire 1 7! X1|type_ten_o~0_combout $end
$var wire 1 8! X1|return_money_i[3]~2_combout $end
$var wire 1 9! X1|Add0~17_sumout $end
$var wire 1 :! X1|return_money_i[0]~3_combout $end
$var wire 1 ;! X1|type_five_o[0]~0_combout $end
$var wire 1 <! X1|type_one_o[0]~0_combout $end
$var wire 1 =! X1|type_one_o[1]~1_combout $end
$var wire 1 >! X1|type_one_o[2]~2_combout $end
$var wire 1 ?! Current_state_o~3_combout $end
$var wire 1 @! Current_state_o~4_combout $end
$var wire 1 A! money_buffer_r [4] $end
$var wire 1 B! money_buffer_r [3] $end
$var wire 1 C! money_buffer_r [2] $end
$var wire 1 D! money_buffer_r [1] $end
$var wire 1 E! money_buffer_r [0] $end
$var wire 1 F! product_type_r [3] $end
$var wire 1 G! product_type_r [2] $end
$var wire 1 H! product_type_r [1] $end
$var wire 1 I! product_type_r [0] $end
$upscope $end
$upscope $end
$enddefinitions $end
#0
$dumpvars
0!
b0 "
b0 #
0$
0%
b0 &
0'
0(
0*
0)
0,
0+
0/
0.
0-
00
01
02
13
x4
15
16
17
08
09
0:
0;
0<
0=
0>
0?
0@
0A
0B
0C
0D
0E
0F
0G
0H
0I
0J
0K
0L
0M
0N
0O
0P
0Q
0R
0S
0T
0U
0V
1W
0X
0Y
0Z
0[
0\
0]
0^
1_
1`
0a
0b
0c
0d
0e
0f
0g
1h
0i
0j
0k
1l
0m
0n
0o
0p
0q
0r
0s
0t
0u
0v
0w
0x
0y
0z
0{
0|
0}
0~
0!!
0"!
0#!
0$!
0%!
0&!
0'!
0(!
1)!
1*!
0+!
1,!
0-!
1.!
0/!
00!
11!
02!
03!
04!
05!
06!
07!
08!
09!
0:!
0;!
0<!
0=!
0>!
1?!
1@!
0E!
0D!
0C!
0B!
0A!
0I!
0H!
0G!
0F!
$end
#5000
1!
1A
#10000
0!
0A
#15000
1!
1A
#20000
0!
0A
#25000
1!
1A
#30000
0!
0A
#35000
1!
1A
#40000
0!
0A
#45000
1!
1A
#50000
0!
0A
#55000
1!
1A
#60000
0!
0A
#65000
1!
1A
#70000
0!
0A
#75000
1!
1A
#80000
0!
0A
#85000
1!
1A
#90000
0!
0A
#95000
1!
1A
#100000
0!
0A
#105000
1!
1A
#110000
0!
0A
#115000
1!
1A
#120000
0!
0A
#125000
1!
1A
#130000
1(
0!
1B
0A
#135000
1!
1A
#140000
0!
0A
#145000
1!
1A
#150000
0!
0A
#155000
1!
1A
#160000
0!
0A
#165000
1!
1A
#170000
0!
0A
#175000
1!
1A
#180000
0!
0A
#185000
1!
1A
#190000
0!
0A
#195000
1!
1A
#200000
0!
0A
#205000
1!
1A
#210000
0!
0A
#215000
1!
1A
#220000
0!
0A
#225000
1!
1A
#230000
0!
0A
#235000
1!
1A
#240000
0!
0A
#245000
1!
1A
#250000
0!
0A
#255000
1!
1A
#260000
0!
0A
#265000
1!
1A
#270000
0!
0A
#275000
1!
1A
#280000
0!
0A
#285000
1!
1A
#290000
0!
0A
#295000
1!
1A
#300000
0!
0A
#305000
1!
1A
#310000
0!
0A
#315000
1!
1A
#320000
0!
0A
#325000
1!
1A
#330000
b100 &
0!
1\
0A
1u
1v
1q
#335000
1!
1A
1w
1r
1G!
1g
1^
1s
1x
0,!
13!
19!
0)!
1o
0*!
15!
0.!
12!
05!
03!
01!
10!
#340000
0!
0A
#345000
1!
1A
1y
1t
0?!
0u
1Y
1?
1p
1*
0q
1q
#350000
0!
0A
#355000
1!
1A
#360000
0!
0A
#365000
1!
1A
#370000
0!
0A
#375000
1!
1A
#380000
0!
0A
#385000
1!
1A
#390000
1%
0!
1F
0A
1S
1I
1V
0v
1i
1a
1z
0`
0W
1{
#395000
1!
1A
1C!
0w
1A!
1b
00!
0o
0l
14!
13!
1m
1c
0x
0m
1>!
1>
1:!
18!
11!
1-
0>!
1=!
1<!
17!
19
1<
1=
0>
0-
1.
1/
11
#400000
0!
0A
#405000
1!
1A
0y
1d
1?!
0h
0@!
0Y
1"!
0i
1@
0?
0p
0*
1)
0a
1i
#410000
b0 &
0!
0\
0A
#415000
1!
1A
1#!
0b
0c
1$!
#420000
0%
0!
0F
0A
0S
0I
0V
1`
1W
#425000
1!
1A
1%!
0d
0?!
0"!
0q
1&!
1?
1*
#430000
0!
0A
#435000
1!
1A
0#!
0r
1'!
18
10
0s
0$!
#440000
0!
0A
#445000
1!
1A
0%!
0t
1@!
1?!
0z
1h
0&!
0?
0@
0)
0*
0i
0{
#450000
0!
0A
#455000
1!
1A
0C!
0A!
0G!
0'!
08
1l
0g
0^
10!
1o
03!
00
04!
0:!
08!
01!
13!
09!
1)!
0o
15!
1>!
0<!
1;!
1:
0<
1>
1*!
05!
16!
18!
14!
11!
1-
0/
1,
0>!
0=!
0;!
07!
09
0:
0=
0>
1,!
03!
06!
0-
0.
0,
01
1>!
1=!
1<!
1;!
17!
19
1:
1<
1=
1>
1.!
02!
04!
1-
1.
1/
1,
11
0=!
0=
00!
08!
0.
0>!
0>
0-
0<!
0;!
07!
09
0:
0<
0/
0,
01
#460000
0!
0A
#465000
1!
1A
#470000
0!
0A
#475000
1!
1A
#480000
0!
0A
#485000
1!
1A
#490000
0!
0A
#495000
1!
1A
#500000
0!
0A
#505000
1!
1A
#510000
0!
0A
#515000
1!
1A
#520000
b10 &
0!
1[
0A
1u
1v
1q
#525000
1!
1A
1w
1r
1H!
1^
1s
1x
0,!
13!
19!
0)!
1o
0.!
12!
0*!
15!
01!
10!
03!
#530000
0!
0A
#535000
1!
1A
1y
1t
0?!
0u
1Y
1?
1p
1*
0q
1q
#540000
0!
0A
#545000
1!
1A
#550000
0!
0A
#555000
1!
1A
#560000
0!
0A
#565000
1!
1A
#570000
0!
0A
#575000
1!
1A
#580000
0!
0A
#585000
1!
1A
#590000
b0 &
0!
0[
0A
#595000
1!
1A
#600000
0!
0A
#605000
1!
1A
#610000
0!
0A
#615000
1!
1A
#620000
1'
0!
1X
0A
0Y
0p
0v
0q
#625000
1!
1A
0w
0r
0s
0x
#630000
0!
0A
#635000
1!
1A
0y
0t
1?!
0?
0*
#640000
0!
0A
#645000
1!
1A
0H!
0^
13!
09!
1)!
0o
1*!
05!
18!
16!
14!
11!
1,!
03!
06!
1>!
1=!
1<!
1;!
17!
19
1:
1<
1=
1>
1.!
02!
04!
1-
1.
1/
1,
11
0=!
0=
00!
08!
0.
0>!
0>
0-
0<!
0;!
07!
09
0:
0<
0/
0,
01
#650000
0!
0A
#655000
1!
1A
#660000
0'
0!
0X
0A
#665000
1!
1A
#670000
0!
0A
#675000
1!
1A
#680000
0!
0A
#685000
1!
1A
#690000
b1 &
0!
1Z
0A
1u
1v
1q
#695000
1!
1A
1w
1r
1I!
1g
1s
1x
0*!
15!
1m
0,!
13!
01!
0.!
12!
10!
#700000
0!
0A
#705000
1!
1A
1y
1t
0?!
0u
1Y
1?
1p
1*
0q
1q
#710000
0!
0A
#715000
1!
1A
#720000
0!
0A
#725000
1!
1A
#730000
0!
0A
#735000
1!
1A
#740000
0!
0A
#745000
1!
1A
#750000
0!
0A
#755000
1!
1A
#760000
b0 &
0!
0Z
0A
#765000
1!
1A
#770000
0!
0A
#775000
1!
1A
#780000
0!
0A
#785000
1!
1A
#790000
1$
0!
1E
0A
1U
1G
1P
1e
0_
0W
0`
1j
0v
1a
1f
1k
#795000
1!
1A
0w
1B!
1D!
1b
16!
1*!
05!
0m
18!
02!
1/!
0l
1c
0x
1,!
03!
00!
08!
06!
14!
11!
17!
19
12!
04!
11
1>!
07!
09
1>
18!
1-
01
0>!
0>
0-
1=!
1<!
1;!
1:
1<
1=
1.
1/
1,
#800000
0!
0A
#805000
1!
1A
0y
1d
1?!
0h
0@!
0Y
1"!
1@
0?
0p
0*
1)
0a
#810000
0!
0A
#815000
1!
1A
1#!
0b
0c
1$!
#820000
0!
0A
#825000
1!
1A
1%!
0d
0?!
0"!
0q
1&!
1?
1*
#830000
0!
0A
#835000
1!
1A
0#!
0r
1'!
18
10
0s
0$!
#840000
0$
0!
0E
0A
0U
0G
0P
1_
1W
1`
#845000
1!
1A
0%!
0t
1@!
1?!
0j
1h
0e
0&!
0?
0@
0)
0*
0f
0k
#850000
0!
0A
#855000
1!
1A
0B!
0D!
0I!
0'!
08
1l
0g
0*!
15!
1.!
02!
0/!
00
0,!
13!
08!
16!
1*!
05!
0.!
12!
1,!
03!
06!
14!
0<!
0;!
0:
0<
10!
1.!
02!
04!
18!
0/
0,
1>!
0=!
17!
19
0=
1>
00!
08!
1-
0.
11
0>!
1<!
1;!
1:
1<
0>
0-
1/
1,
0<!
0;!
07!
09
0:
0<
0/
0,
01
